{
  "content": [
    {
      "id": 1,
      "title": "My home",
      "path": "njanjnajn",
      "description": "snow in April",
      "orientation": "landscape",
      "category": {
        "id": 1,
        "name": "abstract"
      },
      "photoDetails": [],
      "tags": [
        {
          "id": 10,
          "name": "nja"
        },
        {
          "id": 11,
          "name": "home"
        },
        {
          "id": 12,
          "name": "snow"
        }
      ]
    },
    {
      "id": 2,
      "title": "One World Trade Center",
      "path": "https://images.unsplash.com/photo-1694467666983-3fa4a29e7ecf?ixlib=rb-4.0.3&ixid=M3wxMjA3fDB8MHxwaG90by1wYWdlfHx8fGVufDB8fHx8fA%3D%3D&auto=format&fit=crop&w=2574&q=80",
      "description": "a view of a very tall building in the city",
      "orientation": "portrait",
      "category": {
        "id": 1,
        "name": "abstract"
      },
      "photoDetails": [],
      "tags": [
        {
          "id": 10,
          "name": "nja"
        },
        {
          "id": 11,
          "name": "home"
        },
        {
          "id": 12,
          "name": "snow"
        }
      ]
    },
    {
      "id": 3,
      "title": "Desert",
      "path": "https://plus.unsplash.com/premium_photo-1671253988317-4ac145c8305e?ixlib=rb-4.0.3&ixid=M3wxMjA3fDB8MHxwaG90by1wYWdlfHx8fGVufDB8fHx8fA%3D%3D&auto=format&fit=crop&w=2574&q=80",
      "description": "a picture of a snake in the snow",
      "orientation": "landscape",
      "category": {
        "id": 1,
        "name": "abstract"
      },
      "photoDetails": [],
      "tags": [
        {
          "id": 10,
          "name": "nja"
        },
        {
          "id": 11,
          "name": "home"
        },
        {
          "id": 12,
          "name": "snow"
        }
      ]
    },
    {
      "id": 4,
      "title": "Snowboard on hill",
      "path": "https://images.unsplash.com/photo-1694384512183-5d51407b08cc?ixlib=rb-4.0.3&ixid=M3wxMjA3fDB8MHxwaG90by1wYWdlfHx8fGVufDB8fHx8fA%3D%3D&auto=format&fit=crop&w=2574&q=80",
      "description": "a person riding a snowboard on top of a hill",
      "orientation": "portrait",
      "category": {
        "id": 1,
        "name": "abstract"
      },
      "photoDetails": [],
      "tags": [
        {
          "id": 10,
          "name": "nja"
        },
        {
          "id": 11,
          "name": "home"
        },
        {
          "id": 12,
          "name": "snow"
        }
      ]
    },
    {
      "id": 5,
      "title": "Forest",
      "path": "https://plus.unsplash.com/premium_photo-1667126445419-4c8870bf9597?ixlib=rb-4.0.3&ixid=M3wxMjA3fDB8MHxwaG90by1wYWdlfHx8fGVufDB8fHx8fA%3D%3D&auto=format&fit=crop&w=2574&q=80",
      "description": "a river running through a forest filled with trees",
      "orientation": "portrait",
      "category": {
        "id": 1,
        "name": "abstract"
      },
      "photoDetails": [],
      "tags": [
        {
          "id": 10,
          "name": "nja"
        },
        {
          "id": 11,
          "name": "home"
        },
        {
          "id": 12,
          "name": "snow"
        }
      ]
    },
    {
      "id": 6,
      "title": "Green forest with river",
      "path": "https://images.unsplash.com/photo-1694434137000-7a97e0f686db?ixlib=rb-4.0.3&ixid=M3wxMjA3fDB8MHxwaG90by1wYWdlfHx8fGVufDB8fHx8fA%3D%3D&auto=format&fit=crop&w=2574&q=80",
      "description": "a river flowing through a lush green forest",
      "orientation": "portrait",
      "category": {
        "id": 1,
        "name": "abstract"
      },
      "photoDetails": [],
      "tags": [
        {
          "id": 10,
          "name": "nja"
        },
        {
          "id": 11,
          "name": "home"
        },
        {
          "id": 12,
          "name": "snow"
        }
      ]
    },
    {
      "id": 8,
      "title": "Fields in Latvia",
      "path": "https://images.unsplash.com/photo-1690704272983-4c240ff7a7a7?ixlib=rb-4.0.3&ixid=M3wxMjA3fDB8MHxwaG90by1wYWdlfHx8fGVufDB8fHx8fA%3D%3D&auto=format&fit=crop&w=2672&q=80",
      "description": "a field of tall grass blowing in the wind",
      "orientation": "landscape",
      "category": {
        "id": 1,
        "name": "abstract"
      },
      "photoDetails": [],
      "tags": [
        {
          "id": 10,
          "name": "nja"
        },
        {
          "id": 11,
          "name": "home"
        },
        {
          "id": 12,
          "name": "snow"
        }
      ]
    },
    {
      "id": 9,
      "title": "Camping",
      "path": "https://images.unsplash.com/photo-1694456860343-3ae050d93b0a?ixlib=rb-4.0.3&ixid=M3wxMjA3fDB8MHxwaG90by1wYWdlfHx8fGVufDB8fHx8fA%3D%3D&auto=format&fit=crop&w=2574&q=80",
      "description": "a couple of tents sitting in the middle of a forest",
      "orientation": "portrait",
      "category": {
        "id": 1,
        "name": "abstract"
      },
      "photoDetails": [],
      "tags": [
        {
          "id": 10,
          "name": "nja"
        },
        {
          "id": 11,
          "name": "home"
        },
        {
          "id": 12,
          "name": "snow"
        }
      ]
    },
    {
      "id": 10,
      "title": "Mountains",
      "path": "https://images.unsplash.com/photo-1693762318718-adf2f7243230?ixlib=rb-4.0.3&ixid=M3wxMjA3fDB8MHxwaG90by1wYWdlfHx8fGVufDB8fHx8fA%3D%3D&auto=format&fit=crop&w=2608&q=80",
      "description": "a mountain range is reflected in the still water of a lake",
      "orientation": "portrait",
      "category": {
        "id": 1,
        "name": "abstract"
      },
      "photoDetails": [],
      "tags": [
        {
          "id": 10,
          "name": "nja"
        },
        {
          "id": 11,
          "name": "home"
        },
        {
          "id": 12,
          "name": "snow"
        }
      ]
    },
    {
      "id": 11,
      "title": "Night sky",
      "path": "https://images.unsplash.com/photo-1692026172840-42b9f5688735?ixlib=rb-4.0.3&ixid=M3wxMjA3fDB8MHxwaG90by1wYWdlfHx8fGVufDB8fHx8fA%3D%3D&auto=format&fit=crop&w=2669&q=80",
      "description": "an airplane is flying in the sky with the stars in the background",
      "orientation": "landscape",
      "category": {
        "id": 1,
        "name": "abstract"
      },
      "photoDetails": [],
      "tags": [
        {
          "id": 10,
          "name": "nja"
        },
        {
          "id": 11,
          "name": "home"
        },
        {
          "id": 12,
          "name": "snow"
        }
      ]
    },
    {
      "id": 12,
      "title": "Kalbarri",
      "path": "https://images.unsplash.com/photo-1693611148786-a63147c1f38c?ixlib=rb-4.0.3&ixid=M3wxMjA3fDB8MHxwaG90by1wYWdlfHx8fGVufDB8fHx8fA%3D%3D&auto=format&fit=crop&w=2574&q=80",
      "description": "a large body of water surrounded by rocks",
      "orientation": "landscape",
      "category": {
        "id": 1,
        "name": "abstract"
      },
      "photoDetails": [],
      "tags": [
        {
          "id": 10,
          "name": "nja"
        },
        {
          "id": 11,
          "name": "home"
        },
        {
          "id": 12,
          "name": "snow"
        }
      ]
    },
    {
      "id": 13,
      "title": "Brown ferns",
      "path": "https://plus.unsplash.com/premium_photo-1669842336797-4dfc03afa025?ixlib=rb-4.0.3&ixid=M3wxMjA3fDB8MHxwaG90by1wYWdlfHx8fGVufDB8fHx8fA%3D%3D&auto=format&fit=crop&w=2574&q=80",
      "description": "a close up of a pine cone, brown ferns",
      "orientation": "landscape",
      "category": {
        "id": 1,
        "name": "abstract"
      },
      "photoDetails": [],
      "tags": [
        {
          "id": 10,
          "name": "nja"
        },
        {
          "id": 11,
          "name": "home"
        },
        {
          "id": 12,
          "name": "snow"
        }
      ]
    },
    {
      "id": 14,
      "title": "An owl",
      "path": "https://images.unsplash.com/photo-1693856362916-b075ae624176?ixlib=rb-4.0.3&ixid=M3wxMjA3fDB8MHxwaG90by1wYWdlfHx8fGVufDB8fHx8fA%3D%3D&auto=format&fit=crop&w=2670&q=80",
      "description": "an owl is perched on a tree branch",
      "orientation": "landscape",
      "category": {
        "id": 1,
        "name": "abstract"
      },
      "photoDetails": [],
      "tags": [
        {
          "id": 10,
          "name": "nja"
        },
        {
          "id": 11,
          "name": "home"
        },
        {
          "id": 12,
          "name": "snow"
        }
      ]
    },
    {
      "id": 15,
      "title": "Lillies",
      "path": "https://images.unsplash.com/photo-1693494357088-fe294ba23b4c?ixlib=rb-4.0.3&ixid=M3wxMjA3fDB8MHxwaG90by1wYWdlfHx8fGVufDB8fHx8fA%3D%3D&auto=format&fit=crop&w=2574&q=80",
      "description": "a couple of white flowers floating on top of a pond",
      "orientation": "portrait",
      "category": {
        "id": 1,
        "name": "abstract"
      },
      "photoDetails": [],
      "tags": [
        {
          "id": 10,
          "name": "nja"
        },
        {
          "id": 11,
          "name": "home"
        },
        {
          "id": 12,
          "name": "snow"
        }
      ]
    },
    {
      "id": 16,
      "title": "Purple flowers",
      "path": "https://images.unsplash.com/photo-1693222918463-b3478d35131c?ixlib=rb-4.0.3&ixid=M3wxMjA3fDB8MHxwaG90by1wYWdlfHx8fGVufDB8fHx8fA%3D%3D&auto=format&fit=crop&w=2574&q=80",
      "description": "a close up of a plant with purple flowers",
      "orientation": "portrait",
      "category": {
        "id": 1,
        "name": "abstract"
      },
      "photoDetails": [
        {
          "id": 5,
          "size": "1024x768",
          "price": 30.0,
          "path": null,
          "photoId": null
        },
        {
          "id": 6,
          "size": "1280x1024",
          "price": 40.0,
          "path": null,
          "photoId": null
        }
      ],
      "tags": [
        {
          "id": 10,
          "name": "nja"
        },
        {
          "id": 11,
          "name": "home"
        },
        {
          "id": 12,
          "name": "snow"
        }
      ]
    },
    {
      "id": 17,
      "title": "Purple night sky",
      "path": "https://images.unsplash.com/photo-1693018365570-0e6c844724d4?ixlib=rb-4.0.3&ixid=M3wxMjA3fDB8MHxwaG90by1wYWdlfHx8fGVufDB8fHx8fA%3D%3D&auto=format&fit=crop&w=2670&q=80",
      "description": "the night sky with a lot of stars",
      "orientation": "landscape",
      "category": {
        "id": 1,
        "name": "abstract"
      },
      "photoDetails": [
        {
          "id": 21,
          "size": "1024x768",
          "price": 450.0,
          "path": null,
          "photoId": null
        }
      ],
      "tags": [
        {
          "id": 10,
          "name": "nja"
        },
        {
          "id": 11,
          "name": "home"
        },
        {
          "id": 14,
          "name": "sun"
        }
      ]
    },
    {
      "id": 18,
      "title": "Bee",
      "path": "https://images.unsplash.com/photo-1691491735736-85b6db1b62c2?ixlib=rb-4.0.3&ixid=M3wxMjA3fDB8MHxwaG90by1wYWdlfHx8fGVufDB8fHx8fA%3D%3D&auto=format&fit=crop&w=2574&q=80",
      "description": "a bee sitting on top of a purple flower",
      "orientation": "portrait",
      "category": {
        "id": 1,
        "name": "abstract"
      },
      "photoDetails": [],
      "tags": [
        {
          "id": 10,
          "name": "nja"
        },
        {
          "id": 11,
          "name": "home"
        },
        {
          "id": 14,
          "name": "sun"
        }
      ]
    },
    {
      "id": 19,
      "title": "Red sand",
      "path": "https://images.unsplash.com/photo-1682685797229-b2930538da47?ixlib=rb-4.0.3&ixid=M3wxMjA3fDF8MHxwaG90by1wYWdlfHx8fGVufDB8fHx8fA%3D%3D&auto=format&fit=crop&w=2574&q=80",
      "description": "a person standing on top of a sandy hill",
      "orientation": "portrait",
      "category": {
        "id": 1,
        "name": "abstract"
      },
      "photoDetails": [
        {
          "id": 11,
          "size": "1024x768",
          "price": 30.0,
          "path": null,
          "photoId": null
        },
        {
          "id": 12,
          "size": "1280x1024",
          "price": 40.0,
          "path": null,
          "photoId": null
        }
      ],
      "tags": [
        {
          "id": 10,
          "name": "nja"
        },
        {
          "id": 11,
          "name": "home"
        },
        {
          "id": 12,
          "name": "snow"
        },
        {
          "id": 13,
          "name": "bla"
        }
      ]
    },
    {
      "id": 20,
      "title": "Mountain top",
      "path": "https://images.unsplash.com/photo-1692611901935-2edf262a65ed?ixlib=rb-4.0.3&ixid=M3wxMjA3fDB8MHxwaG90by1wYWdlfHx8fGVufDB8fHx8fA%3D%3D&auto=format&fit=crop&w=2572&q=80",
      "description": "a rocky mountain with a single cloud in the sky",
      "orientation": "portrait",
      "category": {
        "id": 1,
        "name": "abstract"
      },
      "photoDetails": [],
      "tags": [
        {
          "id": 10,
          "name": "nja"
        },
        {
          "id": 11,
          "name": "home"
        },
        {
          "id": 14,
          "name": "sun"
        }
      ]
    },
    {
      "id": 22,
      "title": "Buildings",
      "path": "https://images.unsplash.com/photo-1635362269799-7db465b6b0ca?ixlib=rb-4.0.3&ixid=M3wxMjA3fDB8MHxwaG90by1wYWdlfHx8fGVufDB8fHx8fA%3D%3D&auto=format&fit=crop&w=2564&q=80",
      "description": "This is \"Maroc Telecom\" building in Rabat, Morocco",
      "orientation": "portrait",
      "category": {
        "id": 1,
        "name": "abstract"
      },
      "photoDetails": [],
      "tags": [
        {
          "id": 10,
          "name": "nja"
        },
        {
          "id": 11,
          "name": "home"
        },
        {
          "id": 12,
          "name": "snow"
        },
        {
          "id": 13,
          "name": "bla"
        }
      ]
    }
  ],
  "pageable": {
    "sort": {
      "sorted": false,
      "unsorted": true,
      "empty": true
    },
    "offset": 0,
    "pageNumber": 0,
    "pageSize": 20,
    "unpaged": false,
    "paged": true
  },
  "last": false,
  "totalElements": 24,
  "totalPages": 2,
  "size": 20,
  "number": 0,
  "sort": {
    "sorted": false,
    "unsorted": true,
    "empty": true
  },
  "first": true,
  "numberOfElements": 20,
  "empty": false
}
